\addvspace {10\p@ }
\contentsline {figure}{\numberline {1-1}{\ignorespaces ساختار شماتیک برنامه {\texttt {HERAFitter}}\xspace .}}{2}{figure.1.1}
\contentsline {figure}{\numberline {1-2}{\ignorespaces نمودار برای پراکندگی \lr {DIS} خنثی و باردار.}}{4}{figure.1.2}
\contentsline {figure}{\numberline {1-3}{\ignorespaces خلاصه شماتیک رهیافت‌های \lr {TR} و \lr {ACOT} .}}{8}{figure.1.3}
\contentsline {figure}{\numberline {1-4}{\ignorespaces نمودار پراکندگی \lr {DY} .}}{10}{figure.1.4}
\contentsline {figure}{\numberline {1-5}{\ignorespaces نمودار شماتیک عامل‌بندی دوقطبی برای سطح‌مقطع در \lr {DIS} . }}{16}{figure.1.5}
\contentsline {figure}{\numberline {1-6}{\ignorespaces نمودار شماتیک متغیرهای سینماتیکی فرآیندهای \lr {DIS} پراش.}}{20}{figure.1.6}
\contentsline {figure}{\numberline {1-7}{\ignorespaces نمایش‌های مختلف تابع $\chi ^2$ در {\texttt {HERAFitter}}\xspace .}}{28}{figure.1.7}
\contentsline {figure}{\numberline {1-8}{\ignorespaces نمای شماتیک از ساختار برنامه {\texttt {HERAFitter}}\xspace در مدول‌های مختلف.}}{51}{figure.1.8}
\contentsline {figure}{\numberline {1-9}{\ignorespaces مثالی از یک فایل فرمان {\texttt {MINUIT}}\xspace .}}{57}{figure.1.9}
\addvspace {10\p@ }
\contentsline {figure}{\numberline {2-1}{\ignorespaces نمودار کوارک‌های ظرفیت بالا و پایین}}{71}{figure.2.1}
\contentsline {figure}{\numberline {2-2}{\ignorespaces نمودارهای پارتون‌های مختلف برای پارامتربندی .Bi-Log-Normal}}{72}{figure.2.2}
\contentsline {figure}{\numberline {2-3}{\ignorespaces نمودار مربوط به گلوئون که بر اساس مدل‌‌های مختلف گروه‌های .PDF}}{74}{figure.2.3}
\contentsline {figure}{\numberline {2-4}{\ignorespaces برازش داده‌های \lr {H1 Zeus Combined} برای سبک .CTEQ}}{75}{figure.2.4}
\contentsline {figure}{\numberline {2-5}{\ignorespaces برازش داده‌های \lr {H1ZeusCombined} برای سبک .HERAPDF}}{76}{figure.2.5}
\contentsline {figure}{\numberline {2-6}{\ignorespaces مقایسه نمودارهای گلوئون در مقادیر متفاوت .$Q^2$}}{77}{figure.2.6}
\addvspace {10\p@ }
\contentsline {figure}{\numberline {3-1}{\ignorespaces مقایسه فرم پیش‌فرض HERAPDF و شکل جدید پارامتری برای برازش بر روی داده‌های \lr {HERA I-II} در \unhbox \voidb@x \hbox {$Q_0^2 = 1.9 GeV^2$}. }}{81}{figure.3.1}
\contentsline {figure}{\numberline {3-2}{\ignorespaces مقایسه فرم پیش‌فرض HERAPDF و شکل جدید پارامتری برای برازش بر روی داده‌های \lr {HERA I-II} در \unhbox \voidb@x \hbox {$Q^2 = 100 GeV^2$}. }}{82}{figure.3.2}
\contentsline {figure}{\numberline {3-3}{\ignorespaces مقایسه فرم پیش‌فرض HERAPDF و شکل جدید پارامتری برای برازش در \unhbox \voidb@x \hbox {$Q_0^2 = 1.9 GeV^2$}. }}{83}{figure.3.3}
\contentsline {figure}{\numberline {3-4}{\ignorespaces مقایسه فرم پیش‌فرض HERAPDF و شکل جدید پارامتری برای برازش در \unhbox \voidb@x \hbox {$Q^2 = 100 GeV^2$}. }}{84}{figure.3.4}
