\relax 
\providecommand\hyper@newdestlabel[2]{}
\providecommand\zref@newlabel[2]{}
\providecommand\HyperFirstAtBeginDocument{\AtBeginDocument}
\HyperFirstAtBeginDocument{\ifx\hyper@anchor\@undefined
\global\let\oldcontentsline\contentsline
\gdef\contentsline#1#2#3#4{\oldcontentsline{#1}{#2}{#3}}
\global\let\oldnewlabel\newlabel
\gdef\newlabel#1#2{\newlabelxx{#1}#2}
\gdef\newlabelxx#1#2#3#4#5#6{\oldnewlabel{#1}{{#2}{#3}}}
\AtEndDocument{\ifx\hyper@anchor\@undefined
\let\contentsline\oldcontentsline
\let\newlabel\oldnewlabel
\fi}
\fi}
\global\let\hyper@last\relax 
\gdef\HyperFirstAtBeginDocument#1{#1}
\providecommand*\HyPL@Entry[1]{}
\HyPL@Entry{0<</S/D>>}
\HyPL@Entry{4<</P(\376\377\006\314\006\251)>>}
\HyPL@Entry{5<</P(\376\377\006\057\006\110)>>}
\HyPL@Entry{6<</P(\376\377\006\314\006\251)>>}
\HyPL@Entry{7<</S/r>>}
\@writefile{toc}{\contentsline {chapter}{فهرست جداول}{iv}{chapter*.2}}
\@writefile{toc}{\contentsline {chapter}{فهرست تصاویر}{v}{chapter*.3}}
\citation{MINUIT}
\citation{MINUIT}
\HyPL@Entry{13<</S/D>>}
\@writefile{toc}{\contentsline {chapter}{\numberline {فصل\nobreakspace  {}اول}معرفی بسته نرم‌افزاری {\texttt  {HERAFitter}}\xspace  }{1}{chapter.1}}
\@writefile{lof}{\addvspace {10\p@ }}
\@writefile{lot}{\addvspace {10\p@ }}
\@writefile{toc}{\contentsline {section}{\numberline {1-1}معرفی}{1}{section.1.1}}
\newlabel{section:introduction}{{1-1}{1}{معرفی}{section.1.1}{}}
\zref@newlabel{footdir@1}{\abspage{14}}
\zref@newlabel{footdir@3}{\abspage{14}}
\zref@newlabel{footdir@5}{\abspage{14}}
\zref@newlabel{footdir@7}{\abspage{14}}
\zref@newlabel{footdir@9}{\abspage{14}}
\zref@newlabel{footdir@2}{\abspage{14}}
\zref@newlabel{footdir@4}{\abspage{14}}
\zref@newlabel{footdir@6}{\abspage{14}}
\zref@newlabel{footdir@8}{\abspage{14}}
\citation{Gribov:1972ri,Gribov:1972rt,Lipatov:1974qm,Dokshitzer:1977sg,Altarelli:1977zs}
\citation{Gribov:1972ri}
\citation{Gribov:1972rt}
\citation{Lipatov:1974qm}
\citation{Dokshitzer:1977sg}
\citation{Altarelli:1977zs}
\citation{qcdnum}
\citation{qcdnum}
\citation{Curci:1980uw,Furmanski:1980cm}
\citation{Curci:1980uw}
\citation{Furmanski:1980cm}
\@writefile{lof}{\contentsline {figure}{\numberline {1-1}{\ignorespaces ساختار شماتیک برنامه {\texttt  {HERAFitter}}\xspace  .}}{2}{figure.1.1}}
\newlabel{int-pic}{{1-1}{2}{ساختار شماتیک برنامه \fitter }{figure.1.1}{}}
\@writefile{toc}{\contentsline {section}{\numberline {1-2}تئوری ورودی}{2}{section.1.2}}
\newlabel{sec:theory}{{1-2}{2}{تئوری ورودی}{section.1.2}{}}
\zref@newlabel{footdir@10}{\abspage{15}}
\zref@newlabel{footdir@12}{\abspage{15}}
\zref@newlabel{footdir@20}{\abspage{15}}
\zref@newlabel{footdir@11}{\abspage{15}}
\zref@newlabel{footdir@13}{\abspage{15}}
\zref@newlabel{footdir@14}{\abspage{16}}
\zref@newlabel{footdir@16}{\abspage{16}}
\zref@newlabel{footdir@18}{\abspage{16}}
\zref@newlabel{footdir@23}{\abspage{16}}
\zref@newlabel{footdir@21}{\abspage{16}}
\zref@newlabel{footdir@27}{\abspage{16}}
\zref@newlabel{footdir@25}{\abspage{16}}
\@writefile{toc}{\contentsline {subsection}{\numberline {1-2-1}فرمالیته پراکندگی ناکشسان ژرف و رهیافت‌ها}{3}{subsection.1.2.1}}
\newlabel{dis}{{1-2-1}{3}{فرمالیته پراکندگی ناکشسان ژرف و رهیافت‌ها}{subsection.1.2.1}{}}
\zref@newlabel{footdir@33}{\abspage{16}}
\zref@newlabel{footdir@15}{\abspage{16}}
\zref@newlabel{footdir@17}{\abspage{16}}
\zref@newlabel{footdir@19}{\abspage{16}}
\zref@newlabel{footdir@22}{\abspage{16}}
\zref@newlabel{footdir@24}{\abspage{16}}
\zref@newlabel{footdir@26}{\abspage{16}}
\zref@newlabel{footdir@28}{\abspage{16}}
\@writefile{lof}{\contentsline {figure}{\numberline {1-2}{\ignorespaces نمودار برای پراکندگی \lr {DIS} خنثی و باردار.}}{4}{figure.1.2}}
\newlabel{fig:dis}{{1-2}{4}{نمودار برای پراکندگی \lr {DIS} خنثی و باردار}{figure.1.2}{}}
\zref@newlabel{footdir@31}{\abspage{17}}
\zref@newlabel{footdir@29}{\abspage{17}}
\zref@newlabel{footdir@34}{\abspage{17}}
\zref@newlabel{footdir@36}{\abspage{17}}
\zref@newlabel{footdir@30}{\abspage{17}}
\zref@newlabel{footdir@32}{\abspage{17}}
\zref@newlabel{footdir@35}{\abspage{17}}
\newlabel{eq:CC not reduced}{{1-6}{5}{فرمالیته پراکندگی ناکشسان ژرف و رهیافت‌ها}{equation.1.2.6}{}}
\citation{Laenen:1992,Laenen:1993,Riem:1995}
\citation{Laenen:1992}
\citation{Laenen:1993}
\citation{Riem:1995}
\citation{VFN}
\citation{VFN}
\citation{qcdnum}
\citation{qcdnum}
\citation{Thorne:1997ga,Thorne:2006qt}
\citation{Thorne:1997ga}
\citation{Thorne:2006qt}
\citation{openqcdrad:page}
\citation{openqcdrad:page}
\zref@newlabel{footdir@39}{\abspage{19}}
\zref@newlabel{footdir@37}{\abspage{19}}
\zref@newlabel{footdir@43}{\abspage{19}}
\zref@newlabel{footdir@38}{\abspage{19}}
\zref@newlabel{footdir@40}{\abspage{19}}
\citation{Thorne:2006qt,Martin:epC63}
\citation{Thorne:2006qt}
\citation{Martin:epC63}
\citation{Thorne:6180}
\citation{Thorne:6180}
\citation{CWZ}
\citation{CWZ}
\@writefile{toc}{\contentsline {subsubsection}{رهیافت تعداد طعم متغیر بدون جرم}{7}{subsubsection*.4}}
\zref@newlabel{footdir@41}{\abspage{20}}
\@writefile{toc}{\contentsline {subsubsection}{رهیافت طعم متغیر با جرم کلی : رهیافت \lr {Throne-Robert}}{7}{subsubsection*.5}}
\zref@newlabel{footdir@44}{\abspage{20}}
\zref@newlabel{footdir@46}{\abspage{20}}
\zref@newlabel{footdir@54}{\abspage{20}}
\zref@newlabel{footdir@42}{\abspage{20}}
\zref@newlabel{footdir@45}{\abspage{20}}
\zref@newlabel{footdir@47}{\abspage{20}}
\@writefile{lof}{\contentsline {figure}{\numberline {1-3}{\ignorespaces خلاصه شماتیک رهیافت‌های \lr {TR} و \lr {ACOT} .}}{8}{figure.1.3}}
\newlabel{schemes-pic}{{1-3}{8}{خلاصه شماتیک رهیافت‌های \lr {TR} و \lr {ACOT} }{figure.1.3}{}}
\@writefile{toc}{\contentsline {subsubsection}{رهیافت طعم متغیر با جرم کلی : رهیافت \lr {ACOT}}{8}{subsubsection*.6}}
\zref@newlabel{footdir@52}{\abspage{21}}
\zref@newlabel{footdir@50}{\abspage{21}}
\zref@newlabel{footdir@48}{\abspage{21}}
\zref@newlabel{footdir@55}{\abspage{21}}
\zref@newlabel{footdir@49}{\abspage{21}}
\zref@newlabel{footdir@51}{\abspage{21}}
\zref@newlabel{footdir@53}{\abspage{21}}
\citation{openqcdrad:page}
\citation{openqcdrad:page}
\citation{openqcdrad:page}
\citation{openqcdrad:page}
\citation{SMoch:npb864}
\citation{SMoch:npb864}
\citation{SpiesbergerPrivComm}
\citation{SpiesbergerPrivComm}
\@writefile{toc}{\contentsline {subsubsection}{رهیافت تعداد طعم ثابت}{9}{subsubsection*.7}}
\@writefile{toc}{\contentsline {subsubsection}{تصحیحات الکتروضعیف برای پراکندگی $ ep $}{9}{subsubsection*.8}}
\zref@newlabel{footdir@56}{\abspage{22}}
\zref@newlabel{footdir@62}{\abspage{22}}
\zref@newlabel{footdir@57}{\abspage{22}}
\citation{Jegerlehner}
\citation{Jegerlehner}
\citation{Burkhard}
\citation{Burkhard}
\citation{FEWZ}
\citation{FEWZ}
\citation{DYNNLO}
\citation{DYNNLO}
\citation{MCFM}
\citation{MCFM}
\zref@newlabel{footdir@60}{\abspage{23}}
\zref@newlabel{footdir@58}{\abspage{23}}
\@writefile{toc}{\contentsline {subsection}{\numberline {1-2-2}فرآیندهای \lr {Drell-Yan}}{10}{subsection.1.2.2}}
\newlabel{DY}{{1-2-2}{10}{فرآیندهای \lr {Drell-Yan}}{subsection.1.2.2}{}}
\@writefile{lof}{\contentsline {figure}{\numberline {1-4}{\ignorespaces نمودار پراکندگی \lr {DY} .}}{10}{figure.1.4}}
\newlabel{pic-dy}{{1-4}{10}{نمودار پراکندگی \lr {DY} }{figure.1.4}{}}
\zref@newlabel{footdir@63}{\abspage{23}}
\zref@newlabel{footdir@65}{\abspage{23}}
\zref@newlabel{footdir@59}{\abspage{23}}
\zref@newlabel{footdir@61}{\abspage{23}}
\zref@newlabel{footdir@64}{\abspage{23}}
\citation{Drell:1970wh,Yamada:1981mw}
\citation{Drell:1970wh}
\citation{Yamada:1981mw}
\zref@newlabel{footdir@66}{\abspage{24}}
\zref@newlabel{footdir@68}{\abspage{24}}
\zref@newlabel{footdir@67}{\abspage{24}}
\zref@newlabel{footdir@69}{\abspage{25}}
\zref@newlabel{footdir@71}{\abspage{25}}
\zref@newlabel{footdir@70}{\abspage{25}}
\citation{Aliev:2010zk}
\citation{Aliev:2010zk}
\citation{Baernreuther:2012ws}
\citation{Baernreuther:2012ws}
\citation{Moch:2012mk}
\citation{Moch:2012mk}
\citation{Kluge:2006xs,Wobisch:2011ij,Britzger:2012bs}
\citation{Kluge:2006xs}
\citation{Wobisch:2011ij}
\citation{Britzger:2012bs}
\citation{Nagy:1998bb}
\citation{Nagy:1998bb}
\citation{Nagy:2001xb}
\citation{Nagy:2001xb}
\citation{Nagy:2003tz,Nagy:2001fj}
\citation{Nagy:2003tz}
\citation{Nagy:2001fj}
\citation{Kidonakis:2000gi}
\citation{Kidonakis:2000gi}
\@writefile{toc}{\contentsline {subsection}{\numberline {1-2-3}سطح‌مقطع‌های تولید $t\overline  {t}$ در برخوردهای $pp$ یا $p\overline  {p}$}{13}{subsection.1.2.3}}
\newlabel{ttbar}{{1-2-3}{13}{سطح‌مقطع‌های تولید $t\overline {t}$ در برخوردهای $pp$ یا $p\overline {p}$}{subsection.1.2.3}{}}
\@writefile{toc}{\contentsline {subsection}{\numberline {1-2-4}جت‌ها}{13}{subsection.1.2.4}}
\newlabel{sec:theory:jets}{{1-2-4}{13}{جت‌ها}{subsection.1.2.4}{}}
\citation{Carli:2010rw}
\citation{Carli:2010rw}
\citation{Campbell:1999ah,Campbell:2010ff}
\citation{Campbell:1999ah}
\citation{Campbell:2010ff}
\citation{Nagy:2001fj}
\citation{Nagy:2001fj}
\@writefile{toc}{\contentsline {subsubsection}{\lr {fastNLO}}{14}{subsubsection*.9}}
\@writefile{toc}{\contentsline {subsubsection}{\lr {APPLGRID}}{14}{subsubsection*.10}}
\citation{NNZ:91}
\citation{NNZ:91}
\citation{Golec-Biernat:1998js}
\citation{Golec-Biernat:1998js}
\citation{Iancu:2003ge}
\citation{Iancu:2003ge}
\citation{Bartels:2002cj}
\citation{Bartels:2002cj}
\@writefile{toc}{\contentsline {subsection}{\numberline {1-2-5}مدل‌های دوقطبی}{15}{subsection.1.2.5}}
\newlabel{dipole}{{1-2-5}{15}{مدل‌های دوقطبی}{subsection.1.2.5}{}}
\citation{Balitsky:1995ub}
\citation{Balitsky:1995ub}
\citation{Iancu:2003ge}
\citation{Iancu:2003ge}
\@writefile{lof}{\contentsline {figure}{\numberline {1-5}{\ignorespaces نمودار شماتیک عامل‌بندی دوقطبی برای سطح‌مقطع در \lr {DIS} . }}{16}{figure.1.5}}
\newlabel{fig:dipole}{{1-5}{16}{نمودار شماتیک عامل‌بندی دوقطبی برای سطح‌مقطع در \lr {DIS} }{figure.1.5}{}}
\zref@newlabel{footdir@74}{\abspage{29}}
\zref@newlabel{footdir@72}{\abspage{29}}
\zref@newlabel{footdir@76}{\abspage{29}}
\@writefile{toc}{\contentsline {subsubsection}{مدل \lr {GBW}}{16}{subsubsection*.11}}
\newlabel{eGBW}{{1-12}{16}{مدل \lr {GBW}}{equation.1.2.12}{}}
\zref@newlabel{footdir@78}{\abspage{29}}
\zref@newlabel{footdir@73}{\abspage{29}}
\zref@newlabel{footdir@75}{\abspage{29}}
\zref@newlabel{footdir@77}{\abspage{29}}
\citation{Catani:1990eg}
\citation{Catani:1990eg}
\@writefile{toc}{\contentsline {subsubsection}{مدل \lr {IIM}}{17}{subsubsection*.12}}
\@writefile{toc}{\contentsline {subsubsection}{مدل \lr {BGK}}{17}{subsubsection*.13}}
\newlabel{eBGK}{{1-2-5}{17}{مدل \lr {BGK}}{subsubsection*.13}{}}
\newlabel{eqTH730}{{1-2-5}{17}{مدل \lr {BGK}}{subsubsection*.13}{}}
\@writefile{toc}{\contentsline {subsubsection}{مدل \lr {BGK} با کوارک‌های ظرفیت}{17}{subsubsection*.14}}
\citation{CCFMa,CCFMb,Catani:1989sg,CCFMd}
\citation{CCFMa}
\citation{CCFMb}
\citation{Catani:1989sg}
\citation{CCFMd}
\citation{Jung:2012hy}
\citation{Jung:2012hy}
\@writefile{toc}{\contentsline {subsection}{\numberline {1-2-6}تکانه عرضی وابسته (\lr {PDF} غیریکپارچه) با \lr {CCFM}}{18}{subsection.1.2.6}}
\newlabel{TMD}{{1-2-6}{18}{تکانه عرضی وابسته (\lr {PDF} غیریکپارچه) با \lr {CCFM}}{subsection.1.2.6}{}}
\newlabel{kt-factorisation}{{1-13}{18}{تکانه عرضی وابسته (\lr {PDF} غیریکپارچه) با \lr {CCFM}}{equation.1.2.13}{}}
\newlabel{final-convolution}{{1-18}{18}{تکانه عرضی وابسته (\lr {PDF} غیریکپارچه) با \lr {CCFM}}{equation.1.2.17}{}}
\citation{Catani:1990eg}
\citation{Catani:1990eg}
\citation{Jung:2010si}
\citation{Jung:2010si}
\citation{Deak:2010gk}
\citation{Deak:2010gk}
\newlabel{a0}{{1-19}{19}{تکانه عرضی وابسته (\lr {PDF} غیریکپارچه) با \lr {CCFM}}{equation.1.2.19}{}}
\@writefile{toc}{\contentsline {subsection}{\numberline {1-2-7}\lr {PDF} های پراش}{19}{subsection.1.2.7}}
\newlabel{diff}{{1-2-7}{19}{\lr {PDF} های پراش}{subsection.1.2.7}{}}
\@writefile{lof}{\contentsline {figure}{\numberline {1-6}{\ignorespaces نمودار شماتیک متغیرهای سینماتیکی فرآیندهای \lr {DIS} پراش.}}{20}{figure.1.6}}
\newlabel{fig:diff}{{1-6}{20}{نمودار شماتیک متغیرهای سینماتیکی فرآیندهای \lr {DIS} پراش}{figure.1.6}{}}
\@writefile{toc}{\contentsline {subsubsection}{سطح مقطع}{20}{subsubsection*.15}}
\newlabel{Dxs}{{1-21}{20}{سطح مقطع}{equation.1.2.21}{}}
\newlabel{eq:sigred}{{1-22}{20}{سطح مقطع}{equation.1.2.22}{}}
\newlabel{Dxs3}{{1-26}{21}{سطح مقطع}{equation.1.2.26}{}}
\@writefile{toc}{\contentsline {subsubsection}{عامل‌بندی \lr {Regge}}{21}{subsubsection*.16}}
\newlabel{eq:FD3}{{1-28}{22}{عامل‌بندی \lr {Regge}}{equation.1.2.28}{}}
\newlabel{eq:intFlux}{{1-29}{22}{عامل‌بندی \lr {Regge}}{equation.1.2.29}{}}
\newlabel{eq:flux}{{1-30}{22}{عامل‌بندی \lr {Regge}}{equation.1.2.30}{}}
\zref@newlabel{footdir@79}{\abspage{35}}
\@writefile{toc}{\contentsline {section}{\numberline {1-3}اصول برازش \lr {PDF} ها}{22}{section.1.3}}
\zref@newlabel{footdir@83}{\abspage{35}}
\zref@newlabel{footdir@80}{\abspage{35}}
\@writefile{toc}{\contentsline {subsection}{\numberline {1-3-1}پارامتربندی \lr {pdf} ها }{23}{subsection.1.3.1}}
\newlabel{sec:pdfparam}{{1-3-1}{23}{پارامتربندی \lr {pdf} ها }{subsection.1.3.1}{}}
\zref@newlabel{footdir@81}{\abspage{36}}
\@writefile{toc}{\contentsline {subsubsection}{شکل توابع استاندارد}{23}{subsubsection*.17}}
\newlabel{sec:stdform}{{1-3-1}{23}{شکل توابع استاندارد}{subsubsection*.17}{}}
\newlabel{eqn:pdf_std}{{1-31}{23}{شکل توابع استاندارد}{equation.1.3.31}{}}
\newlabel{eqn:pdf}{{1-32}{23}{شکل توابع استاندارد}{equation.1.3.32}{}}
\zref@newlabel{footdir@88}{\abspage{36}}
\zref@newlabel{footdir@82}{\abspage{36}}
\citation{hermes}
\citation{hermes}
\zref@newlabel{footdir@84}{\abspage{37}}
\zref@newlabel{footdir@86}{\abspage{37}}
\zref@newlabel{footdir@89}{\abspage{37}}
\zref@newlabel{footdir@85}{\abspage{37}}
\zref@newlabel{footdir@87}{\abspage{37}}
\citation{AndreSchoening}
\citation{AndreSchoening}
\newlabel{eqn:pdf_cteq}{{1-35}{25}{شکل توابع استاندارد}{equation.1.3.35}{}}
\@writefile{toc}{\contentsline {subsubsection}{فرم تابعی \lr {Bi-Log-Normal}}{25}{subsubsection*.18}}
\newlabel{sec:log}{{1-3-1}{25}{فرم تابعی \lr {Bi-Log-Normal}}{subsubsection*.18}{}}
\newlabel{eq:AS}{{1-36}{25}{فرم تابعی \lr {Bi-Log-Normal}}{equation.1.3.36}{}}
\@writefile{toc}{\contentsline {subsubsection}{فرم تابعی چندجمله‌ای چبیشف}{25}{subsubsection*.19}}
\newlabel{sec:cheb}{{1-3-1}{25}{فرم تابعی چندجمله‌ای چبیشف}{subsubsection*.19}{}}
\newlabel{eq:glu}{{1-37}{25}{فرم تابعی چندجمله‌ای چبیشف}{equation.1.3.37}{}}
\newlabel{eq:sea}{{1-38}{25}{فرم تابعی چندجمله‌ای چبیشف}{equation.1.3.37}{}}
\@writefile{toc}{\contentsline {subsubsection}{شکل تابعی پارامتربندی پراش}{26}{subsubsection*.20}}
\newlabel{singlet}{{1-39}{26}{شکل تابعی پارامتربندی پراش}{equation.1.3.39}{}}
\newlabel{eq:pm}{{1-41}{26}{شکل تابعی پارامتربندی پراش}{equation.1.3.41}{}}
\newlabel{eq:fq3}{{1-42}{26}{شکل تابعی پارامتربندی پراش}{equation.1.3.42}{}}
\newlabel{eq:nsevol}{{1-44}{27}{شکل تابعی پارامتربندی پراش}{equation.1.3.44}{}}
\newlabel{sec:Par}{{1-3-1}{27}{شکل تابعی پارامتربندی پراش}{equation.1.3.44}{}}
\newlabel{eq:fP0}{{1-46}{27}{شکل تابعی پارامتربندی پراش}{equation.1.3.46}{}}
\citation{Stump:2001gu,Botje:2001fx,Aaron:2009bp}
\citation{Stump:2001gu}
\citation{Botje:2001fx}
\citation{Aaron:2009bp}
\citation{Aaron:2009bp}
\citation{Aaron:2009bp}
\@writefile{toc}{\contentsline {subsection}{\numberline {1-3-2}تعریف تابع \lr {Chisquare} $\chi ^2$}{28}{subsection.1.3.2}}
\newlabel{sec:error}{{1-3-2}{28}{تعریف تابع \lr {Chisquare} $\chi ^2$}{subsection.1.3.2}{}}
\newlabel{sec:chi2}{{1-3-2}{28}{تعریف تابع \lr {Chisquare} $\chi ^2$}{subsection.1.3.2}{}}
\zref@newlabel{footdir@90}{\abspage{41}}
\@writefile{lof}{\contentsline {figure}{\numberline {1-7}{\ignorespaces نمایش‌های مختلف تابع $\chi ^2$ در {\texttt  {HERAFitter}}\xspace  .}}{28}{figure.1.7}}
\newlabel{fig:chi2}{{1-7}{28}{نمایش‌های مختلف تابع $\chi ^2$ در \fitter }{figure.1.7}{}}
\@writefile{toc}{\contentsline {subsubsection}{با استفاده از پارامترهای اضافه}{28}{subsubsection*.21}}
\newlabel{eq:ave}{{1-47}{28}{با استفاده از پارامترهای اضافه}{equation.1.3.47}{}}
\zref@newlabel{footdir@92}{\abspage{41}}
\zref@newlabel{footdir@91}{\abspage{41}}
\newlabel{eq:aven}{{1-48}{29}{با استفاده از پارامترهای اضافه}{equation.1.3.48}{}}
\newlabel{eq:chi2gen}{{1-49}{29}{با استفاده از پارامترهای اضافه}{equation.1.3.49}{}}
\newlabel{eq:chi2c}{{1-52}{30}{با استفاده از پارامترهای اضافه}{equation.1.3.52}{}}
\newlabel{eq:chi2n}{{1-53}{30}{با استفاده از پارامترهای اضافه}{equation.1.3.53}{}}
\zref@newlabel{footdir@93}{\abspage{43}}
\zref@newlabel{footdir@95}{\abspage{43}}
\zref@newlabel{footdir@94}{\abspage{43}}
\@writefile{lot}{\contentsline {table}{\numberline {1-1}{\ignorespaces قواعد مقیاس بندی برای خطاهای آماری، سیستماتیک همبسته و ناهمبسته.}}{31}{table.1.1}}
\newlabel{tab:ErrScale}{{1-1}{31}{قواعد مقیاس بندی برای خطاهای آماری، سیستماتیک همبسته و ناهمبسته}{table.1.1}{}}
\@writefile{toc}{\contentsline {subsubsection}{نحوه اجرا در {\texttt  {HERAFitter}}\xspace  }{31}{subsubsection*.22}}
\citation{Stump:2001gu,Botje:2001fx}
\citation{Stump:2001gu}
\citation{Botje:2001fx}
\@writefile{lot}{\contentsline {table}{\numberline {1-2}{\ignorespaces مقادیر ممکن پارامتر \lr {{CorChi2Type}} }}{32}{table.1.2}}
\newlabel{tab:Chi2Type}{{1-2}{32}{مقادیر ممکن پارامتر \lr {{CorChi2Type}}}{table.1.2}{}}
\@writefile{lot}{\contentsline {table}{\numberline {1-3}{\ignorespaces  پیراینده‌ها برای منابع خطای سیستماتیک همبسته.}}{32}{table.1.3}}
\newlabel{tab:SystModifier}{{1-3}{32}{پیراینده‌ها برای منابع خطای سیستماتیک همبسته}{table.1.3}{}}
\@writefile{toc}{\contentsline {subsection}{\numberline {1-3-3}رفتار عدم قطعیت تجربی}{33}{subsection.1.3.3}}
\@writefile{toc}{\contentsline {subsubsection}{خظاهای همبسته و $\chi ^2$}{33}{subsubsection*.23}}
\newlabel{sec:cor-chi2}{{1-3-3}{33}{خظاهای همبسته و \texorpdfstring {$\chi ^2$}{chi2}}{subsubsection*.23}{}}
\newlabel{eq:chi1}{{1-59}{34}{خظاهای همبسته و \texorpdfstring {$\chi ^2$}{chi2}}{equation.1.3.59}{}}
\newlabel{eq:p_ms}{{1-62}{34}{خظاهای همبسته و \texorpdfstring {$\chi ^2$}{chi2}}{equation.1.3.62}{}}
\newlabel{eq:chi_c}{{1-63}{34}{خظاهای همبسته و \texorpdfstring {$\chi ^2$}{chi2}}{equation.1.3.63}{}}
\citation{Stump:2001gu}
\citation{Stump:2001gu}
\citation{Stump:2001gu}
\citation{Stump:2001gu}
\citation{Pascaud:1995qs}
\citation{Pascaud:1995qs}
\newlabel{eq:chi_int}{{1-65}{35}{خظاهای همبسته و \texorpdfstring {$\chi ^2$}{chi2}}{equation.1.3.65}{}}
\@writefile{toc}{\contentsline {subsubsection}{روش آفست}{35}{subsubsection*.24}}
\newlabel{eq:Cv-full}{{1-66}{35}{روش آفست}{equation.1.3.66}{}}
\newlabel{eq:Vsysp}{{1-68}{36}{روش آفست}{equation.1.3.68}{}}
\citation{Giele:1998gw,mcmethod2}
\citation{Giele:1998gw}
\citation{mcmethod2}
\@writefile{toc}{\contentsline {subsubsection}{روش مونت کارلو}{37}{subsubsection*.25}}
\newlabel{sec:ToyMC}{{1-3-3}{37}{روش مونت کارلو}{subsubsection*.25}{}}
\@writefile{toc}{\contentsline {subsubsection}{نحوه اجرا در {\texttt  {HERAFitter}}\xspace  }{38}{subsubsection*.26}}
\@writefile{toc}{\contentsline {subsubsection}{روش‌های تنظیم}{38}{subsubsection*.27}}
\citation{Chebyshev}
\citation{Chebyshev}
\citation{Giele:1998gw}
\citation{Giele:1998gw}
\citation{Ball:2011gg,Ball:2010gb}
\citation{Ball:2011gg}
\citation{Ball:2010gb}
\citation{Watt:2012tq}
\citation{Watt:2012tq}
\@writefile{toc}{\contentsline {section}{\numberline {1-4}تکنیک توزین Bayesian}{41}{section.1.4}}
\@writefile{toc}{\contentsline {subsection}{\numberline {1-4-1}توزیع‌های احتمال PDF }{41}{subsection.1.4.1}}
\newlabel{eq:meanReplicas}{{1-72}{42}{توزیع‌های احتمال PDF }{equation.1.4.72}{}}
\@writefile{toc}{\contentsline {subsection}{\numberline {1-4-2}توزین Bayesian مجموعه‌های PDF}{43}{subsection.1.4.2}}
\@writefile{toc}{\contentsline {subsection}{\numberline {1-4-3}نحوه استفاده توزین PDF در برنامه {\texttt  {HERAFitter}}\xspace  }{44}{subsection.1.4.3}}
\citation{qcdnum}
\citation{qcdnum}
\@writefile{toc}{\contentsline {section}{\numberline {1-5}راهنمای برنامه}{46}{section.1.5}}
\newlabel{sec:install}{{1-5}{46}{راهنمای برنامه}{section.1.5}{}}
\@writefile{toc}{\contentsline {subsection}{\numberline {1-5-1}دستورالعمل‌های نصب برنامه}{46}{subsection.1.5.1}}
\@writefile{toc}{\contentsline {subsubsection}{پیش‌نیازها}{46}{subsubsection*.28}}
\@writefile{toc}{\contentsline {subsubsection}{نصب پیش‌فرض}{46}{subsubsection*.29}}
\@writefile{toc}{\contentsline {subsubsection}{نصب به همراه {\texttt  {APPL\-GRID}}\xspace  }{47}{subsubsection*.30}}
\newlabel{sec:instapplgrid}{{1-5-1}{47}{نصب به همراه \applgrid }{subsubsection*.30}{}}
\@writefile{toc}{\contentsline {subsubsection}{نصب به همراه {\texttt  {LHAPDF}}\xspace  }{48}{subsubsection*.31}}
\newlabel{sec:instlhapdf}{{1-5-1}{48}{نصب به همراه \lhapdf }{subsubsection*.31}{}}
\@writefile{toc}{\contentsline {subsection}{\numberline {1-5-2}نصب به همراه توزین PDF}{48}{subsection.1.5.2}}
\newlabel{sec:instwt}{{1-5-2}{48}{نصب به همراه توزین PDF}{subsection.1.5.2}{}}
\@writefile{toc}{\contentsline {subsubsection}{نصب به همراه {\tt  HATHOR}}{49}{subsubsection*.32}}
\newlabel{sec:insthathor}{{1-5-2}{49}{نصب به همراه {\tt HATHOR}}{subsubsection*.32}{}}
\@writefile{toc}{\contentsline {subsubsection}{ نصب برای TMD (uPDF) در عامل‌بندی انرژی بالا (با استفاده از {\tt  CASCADE} ) }{49}{subsubsection*.33}}
\@writefile{lof}{\contentsline {figure}{\numberline {1-8}{\ignorespaces نمای شماتیک از ساختار برنامه {\texttt  {HERAFitter}}\xspace  در مدول‌های مختلف.}}{51}{figure.1.8}}
\newlabel{fig:org}{{1-8}{51}{نمای شماتیک از ساختار برنامه \fitter در مدول‌های مختلف}{figure.1.8}{}}
\@writefile{toc}{\contentsline {subsection}{\numberline {1-5-3}راهنمای کاربر}{51}{subsection.1.5.3}}
\newlabel{sec:man}{{1-5-3}{51}{راهنمای کاربر}{subsection.1.5.3}{}}
\@writefile{toc}{\contentsline {subsubsection}{سازمان کد}{51}{subsubsection*.34}}
\@writefile{toc}{\contentsline {subsubsection}{فایل‌های فرمان}{52}{subsubsection*.35}}
\zref@newlabel{footdir@96}{\abspage{66}}
\zref@newlabel{footdir@98}{\abspage{66}}
\zref@newlabel{footdir@100}{\abspage{66}}
\zref@newlabel{footdir@97}{\abspage{66}}
\zref@newlabel{footdir@99}{\abspage{66}}
\@writefile{lof}{\contentsline {figure}{\numberline {1-9}{\ignorespaces مثالی از یک فایل فرمان {\texttt  {MINUIT}}\xspace  .}}{57}{figure.1.9}}
\newlabel{minuitexample}{{1-9}{57}{مثالی از یک فایل فرمان \minuit }{figure.1.9}{}}
\@writefile{toc}{\contentsline {subsubsection}{قالب فایل‌های داده}{61}{subsubsection*.36}}
\newlabel{sec:dataformat}{{1-5-3}{61}{قالب فایل‌های داده}{subsubsection*.36}{}}
\zref@newlabel{footdir@103}{\abspage{74}}
\zref@newlabel{footdir@101}{\abspage{74}}
\zref@newlabel{footdir@105}{\abspage{74}}
\zref@newlabel{footdir@102}{\abspage{74}}
\zref@newlabel{footdir@104}{\abspage{74}}
\zref@newlabel{footdir@106}{\abspage{76}}
\zref@newlabel{footdir@108}{\abspage{76}}
\zref@newlabel{footdir@107}{\abspage{76}}
\zref@newlabel{footdir@111}{\abspage{77}}
\zref@newlabel{footdir@109}{\abspage{77}}
\zref@newlabel{footdir@113}{\abspage{77}}
\zref@newlabel{footdir@110}{\abspage{77}}
\zref@newlabel{footdir@112}{\abspage{77}}
\zref@newlabel{footdir@114}{\abspage{79}}
\@writefile{toc}{\contentsline {subsubsection}{درک خروجی}{66}{subsubsection*.37}}
\zref@newlabel{footdir@118}{\abspage{79}}
\zref@newlabel{footdir@115}{\abspage{79}}
\zref@newlabel{footdir@116}{\abspage{80}}
\zref@newlabel{footdir@119}{\abspage{80}}
\zref@newlabel{footdir@117}{\abspage{80}}
\@writefile{toc}{\contentsline {subsection}{\numberline {1-5-4}مثال کاربر}{68}{subsection.1.5.4}}
\@writefile{toc}{\contentsline {subsubsection}{داده های فراگیر DIS}{68}{subsubsection*.38}}
\@writefile{toc}{\contentsline {subsubsection}{همه واکنش‌ها}{68}{subsubsection*.39}}
\@writefile{toc}{\contentsline {subsubsection}{ چگونه داده جدید اضافه کنیم}{68}{subsubsection*.40}}
\@writefile{toc}{\contentsline {chapter}{\numberline {فصل\nobreakspace  {}دوم}مدل‌های مختلف پارامتربندی}{70}{chapter.2}}
\@writefile{lof}{\addvspace {10\p@ }}
\@writefile{lot}{\addvspace {10\p@ }}
\newlabel{chapter2}{{2}{70}{مدل‌های مختلف پارامتربندی}{chapter.2}{}}
\@writefile{toc}{\contentsline {section}{\numberline {2-1}چندجمله‌ای‌های استاندارد}{70}{section.2.1}}
\newlabel{eq:standpar}{{2-1}{70}{چندجمله‌ای‌های استاندارد}{equation.2.1.1}{}}
\newlabel{fig:CTHERA-udv}{{2-1}{71}{چندجمله‌ای‌های استاندارد}{equation.2.1.1}{}}
\@writefile{lof}{\contentsline {figure}{\numberline {2-1}{\ignorespaces نمودار کوارک‌های ظرفیت بالا و پایین}}{71}{figure.2.1}}
\zref@newlabel{footdir@122}{\abspage{84}}
\zref@newlabel{footdir@120}{\abspage{84}}
\@writefile{toc}{\contentsline {section}{\numberline {2-2}توزیع‌های bi-log-normal}{71}{section.2.2}}
\newlabel{eq:bilogparam}{{2-2}{71}{توزیع‌های bi-log-normal}{equation.2.2.2}{}}
\zref@newlabel{footdir@124}{\abspage{84}}
\zref@newlabel{footdir@121}{\abspage{84}}
\zref@newlabel{footdir@123}{\abspage{84}}
\@writefile{lof}{\contentsline {figure}{\numberline {2-2}{\ignorespaces نمودارهای پارتون‌های مختلف برای پارامتربندی .Bi-Log-Normal}}{72}{figure.2.2}}
\newlabel{fig:bilog}{{2-2}{72}{نمودارهای پارتون‌های مختلف برای پارامتربندی .Bi-Log-Normal}{figure.2.2}{}}
\@writefile{toc}{\contentsline {section}{\numberline {2-3}چندجمله‌ای‌های چبیشف}{73}{section.2.3}}
\zref@newlabel{footdir@125}{\abspage{86}}
\newlabel{eq:chebglu}{{2-3}{73}{چندجمله‌ای‌های چبیشف}{equation.2.3.3}{}}
\newlabel{eq:chebsea}{{2-4}{73}{چندجمله‌ای‌های چبیشف}{equation.2.3.3}{}}
\@writefile{toc}{\contentsline {section}{\numberline {2-4}PDF های خارجی}{73}{section.2.4}}
\zref@newlabel{footdir@127}{\abspage{86}}
\zref@newlabel{footdir@126}{\abspage{86}}
\@writefile{lof}{\contentsline {figure}{\numberline {2-3}{\ignorespaces نمودار مربوط به گلوئون که بر اساس مدل‌‌های مختلف گروه‌های .PDF}}{74}{figure.2.3}}
\newlabel{fig:lhapdf}{{2-3}{74}{نمودار مربوط به گلوئون که بر اساس مدل‌‌های مختلف گروه‌های .PDF}{figure.2.3}{}}
\@writefile{lof}{\contentsline {figure}{\numberline {2-4}{\ignorespaces برازش داده‌های \lr {H1 Zeus Combined} برای سبک .CTEQ}}{75}{figure.2.4}}
\newlabel{fig:CTEQnlo-nnlo-hera-1-2}{{2-4}{75}{برازش داده‌های \lr {H1 Zeus Combined} برای سبک .CTEQ}{figure.2.4}{}}
\@writefile{toc}{\contentsline {section}{\numberline {2-5}نتایج برازش}{75}{section.2.5}}
\@writefile{lot}{\contentsline {table}{\numberline {2-1}{\ignorespaces مقادیر $\chi ^2$ برای برازش سبک .CTEQ}}{76}{table.2.1}}
\newlabel{tab:chi2-HERA-1-2-CTEQ-nlo-nnlo}{{2-1}{76}{مقادیر $\chi ^2$ برای برازش سبک .CTEQ}{table.2.1}{}}
\@writefile{lof}{\contentsline {figure}{\numberline {2-5}{\ignorespaces برازش داده‌های \lr {H1ZeusCombined} برای سبک .HERAPDF}}{76}{figure.2.5}}
\newlabel{fig:fig:HERaPDFnlo-nnlo-hera-1-2}{{2-5}{76}{برازش داده‌های \lr {H1ZeusCombined} برای سبک .HERAPDF}{figure.2.5}{}}
\@writefile{lot}{\contentsline {table}{\numberline {2-2}{\ignorespaces مقادیر $\chi ^2$ برای برازش سبک .HERAPDF}}{76}{table.2.2}}
\newlabel{tab:chi2-HERA-1-2-HERAPDF-nlo-nnlo}{{2-2}{76}{مقادیر $\chi ^2$ برای برازش سبک .HERAPDF}{table.2.2}{}}
\@writefile{lot}{\contentsline {table}{\numberline {2-3}{\ignorespaces مقادیر $\chi ^2$ برای برازش سبک‌های HERAPDF و .CTEQ}}{77}{table.2.3}}
\newlabel{tab:chi2-HERA-1-2-HERAPDF-CTEQ-nlo}{{2-3}{77}{مقادیر $\chi ^2$ برای برازش سبک‌های HERAPDF و .CTEQ}{table.2.3}{}}
\newlabel{fig:gluon-ct-hera-q2-5-100}{{2-5}{77}{نتایج برازش}{table.2.2}{}}
\@writefile{lof}{\contentsline {figure}{\numberline {2-6}{\ignorespaces مقایسه نمودارهای گلوئون در مقادیر متفاوت .$Q^2$}}{77}{figure.2.6}}
\@writefile{toc}{\contentsline {chapter}{\numberline {فصل\nobreakspace  {}سوم}برازش با شکل جدید پارامتری}{78}{chapter.3}}
\@writefile{lof}{\addvspace {10\p@ }}
\@writefile{lot}{\addvspace {10\p@ }}
\newlabel{chapter3}{{3}{78}{برازش با شکل جدید پارامتری}{chapter.3}{}}
\@writefile{toc}{\contentsline {section}{\numberline {3-1}مقدمه}{78}{section.3.1}}
\@writefile{toc}{\contentsline {section}{\numberline {3-2}چارچوب نظری}{79}{section.3.2}}
\@writefile{toc}{\contentsline {subsection}{\numberline {3-2-1}شکل پارامتری}{79}{subsection.3.2.1}}
\newlabel{eq:cjpara}{{3-1}{79}{شکل پارامتری}{equation.3.2.1}{}}
\newlabel{eq:ctpara}{{3-2}{79}{شکل پارامتری}{equation.3.2.2}{}}
\newlabel{eq:strangepara}{{3-3}{79}{شکل پارامتری}{equation.3.2.3}{}}
\@writefile{toc}{\contentsline {subsection}{\numberline {3-2-2}کوارک‌های سنگین}{79}{subsection.3.2.2}}
\zref@newlabel{footdir@128}{\abspage{92}}
\zref@newlabel{footdir@134}{\abspage{92}}
\zref@newlabel{footdir@129}{\abspage{92}}
\zref@newlabel{footdir@132}{\abspage{93}}
\zref@newlabel{footdir@130}{\abspage{93}}
\@writefile{toc}{\contentsline {section}{\numberline {3-3}داده‌ها}{80}{section.3.3}}
\@writefile{toc}{\contentsline {section}{\numberline {3-4}نتایج}{80}{section.3.4}}
\zref@newlabel{footdir@135}{\abspage{93}}
\zref@newlabel{footdir@131}{\abspage{93}}
\zref@newlabel{footdir@133}{\abspage{93}}
\@writefile{lof}{\contentsline {figure}{\numberline {3-1}{\ignorespaces مقایسه فرم پیش‌فرض HERAPDF و شکل جدید پارامتری برای برازش بر روی داده‌های \lr {HERA I-II} در \unhbox \voidb@x \hbox {$Q_0^2 = 1.9 GeV^2$}. }}{81}{figure.3.1}}
\newlabel{plot:Q02-HERA-I-II}{{3-1}{81}{مقایسه فرم پیش‌فرض HERAPDF و شکل جدید پارامتری برای برازش بر روی داده‌های \lr {HERA I-II} در \mbox {$Q_0^2 = 1.9 GeV^2$}}{figure.3.1}{}}
\@writefile{lot}{\contentsline {table}{\numberline {3-1}{\ignorespaces جدول $\chi ^2$ مربوط به برازش‌های داده‌های \unhbox \voidb@x \hbox {\lr {.HERA I-II}} }}{81}{table.3.1}}
\newlabel{table:chi2-HERA-I-II}{{3-1}{81}{جدول $\chi ^2$ مربوط به برازش‌های داده‌های \mbox {\lr {.HERA I-II}}}{table.3.1}{}}
\@writefile{lof}{\contentsline {figure}{\numberline {3-2}{\ignorespaces مقایسه فرم پیش‌فرض HERAPDF و شکل جدید پارامتری برای برازش بر روی داده‌های \lr {HERA I-II} در \unhbox \voidb@x \hbox {$Q^2 = 100 GeV^2$}. }}{82}{figure.3.2}}
\newlabel{plot:Q2-HERA-I-II}{{3-2}{82}{مقایسه فرم پیش‌فرض HERAPDF و شکل جدید پارامتری برای برازش بر روی داده‌های \lr {HERA I-II} در \mbox {$Q^2 = 100 GeV^2$}}{figure.3.2}{}}
\@writefile{lof}{\contentsline {figure}{\numberline {3-3}{\ignorespaces مقایسه فرم پیش‌فرض HERAPDF و شکل جدید پارامتری برای برازش در \unhbox \voidb@x \hbox {$Q_0^2 = 1.9 GeV^2$}. }}{83}{figure.3.3}}
\newlabel{plot:Q02-allData}{{3-3}{83}{مقایسه فرم پیش‌فرض HERAPDF و شکل جدید پارامتری برای برازش در \mbox {$Q_0^2 = 1.9 GeV^2$}}{figure.3.3}{}}
\@writefile{lof}{\contentsline {figure}{\numberline {3-4}{\ignorespaces مقایسه فرم پیش‌فرض HERAPDF و شکل جدید پارامتری برای برازش در \unhbox \voidb@x \hbox {$Q^2 = 100 GeV^2$}. }}{84}{figure.3.4}}
\newlabel{plot:Q2-allData}{{3-4}{84}{مقایسه فرم پیش‌فرض HERAPDF و شکل جدید پارامتری برای برازش در \mbox {$Q^2 = 100 GeV^2$}}{figure.3.4}{}}
\bibstyle{unsrt-fa}
\bibdata{writeup}
\@writefile{lot}{\contentsline {table}{\numberline {3-2}{\ignorespaces جدول $\chi ^2$ مربوط به برازش‌های داده‌های بیشتر}}{85}{table.3.2}}
\newlabel{table:chi2-allData}{{3-2}{85}{جدول $\chi ^2$ مربوط به برازش‌های داده‌های بیشتر}{table.3.2}{}}
\@writefile{toc}{\contentsline {section}{\numberline {3-5}نتیجه}{85}{section.3.5}}
\bibcite{MINUIT}{{1}{}{{}}{{}}}
\bibcite{Gribov:1972ri}{{2}{}{{}}{{}}}
\bibcite{Gribov:1972rt}{{3}{}{{}}{{}}}
\bibcite{Lipatov:1974qm}{{4}{}{{}}{{}}}
\bibcite{Dokshitzer:1977sg}{{5}{}{{}}{{}}}
\bibcite{Altarelli:1977zs}{{6}{}{{}}{{}}}
\bibcite{qcdnum}{{7}{}{{}}{{}}}
\bibcite{Curci:1980uw}{{8}{}{{}}{{}}}
\bibcite{Furmanski:1980cm}{{9}{}{{}}{{}}}
\bibcite{Laenen:1992}{{10}{}{{}}{{}}}
\bibcite{Laenen:1993}{{11}{}{{}}{{}}}
\bibcite{Riem:1995}{{12}{}{{}}{{}}}
\bibcite{VFN}{{13}{}{{}}{{}}}
\bibcite{Thorne:1997ga}{{14}{}{{}}{{}}}
\bibcite{Thorne:2006qt}{{15}{}{{}}{{}}}
\bibcite{openqcdrad:page}{{16}{}{{}}{{}}}
\@writefile{toc}{\contentsline {chapter}{{\rl {مراجع}\hfill }}{86}{appendix*.41}}
\bibcite{Martin:epC63}{{17}{}{{}}{{}}}
\bibcite{Thorne:6180}{{18}{}{{}}{{}}}
\bibcite{CWZ}{{19}{}{{}}{{}}}
\bibcite{SMoch:npb864}{{20}{}{{}}{{}}}
\bibcite{SpiesbergerPrivComm}{{21}{}{{}}{{}}}
\bibcite{Jegerlehner}{{22}{}{{}}{{}}}
\bibcite{Burkhard}{{23}{}{{}}{{}}}
\bibcite{FEWZ}{{24}{}{{}}{{}}}
\bibcite{DYNNLO}{{25}{}{{}}{{}}}
\bibcite{MCFM}{{26}{}{{}}{{}}}
\bibcite{Drell:1970wh}{{27}{}{{}}{{}}}
\bibcite{Yamada:1981mw}{{28}{}{{}}{{}}}
\bibcite{Aliev:2010zk}{{29}{}{{}}{{}}}
\bibcite{Baernreuther:2012ws}{{30}{}{{}}{{}}}
\bibcite{Moch:2012mk}{{31}{}{{}}{{}}}
\bibcite{Kluge:2006xs}{{32}{}{{}}{{}}}
\bibcite{Wobisch:2011ij}{{33}{}{{}}{{}}}
\bibcite{Britzger:2012bs}{{34}{}{{}}{{}}}
\bibcite{Nagy:1998bb}{{35}{}{{}}{{}}}
\bibcite{Nagy:2001xb}{{36}{}{{}}{{}}}
\bibcite{Nagy:2003tz}{{37}{}{{}}{{}}}
\bibcite{Nagy:2001fj}{{38}{}{{}}{{}}}
\bibcite{Kidonakis:2000gi}{{39}{}{{}}{{}}}
\bibcite{Carli:2010rw}{{40}{}{{}}{{}}}
\bibcite{Campbell:1999ah}{{41}{}{{}}{{}}}
\bibcite{Campbell:2010ff}{{42}{}{{}}{{}}}
\bibcite{NNZ:91}{{43}{}{{}}{{}}}
\bibcite{Golec-Biernat:1998js}{{44}{}{{}}{{}}}
\bibcite{Iancu:2003ge}{{45}{}{{}}{{}}}
\bibcite{Bartels:2002cj}{{46}{}{{}}{{}}}
\bibcite{Balitsky:1995ub}{{47}{}{{}}{{}}}
\bibcite{Catani:1990eg}{{48}{}{{}}{{}}}
\bibcite{CCFMa}{{49}{}{{}}{{}}}
\bibcite{CCFMb}{{50}{}{{}}{{}}}
\bibcite{Catani:1989sg}{{51}{}{{}}{{}}}
\bibcite{CCFMd}{{52}{}{{}}{{}}}
\bibcite{Jung:2012hy}{{53}{}{{}}{{}}}
\bibcite{Jung:2010si}{{54}{}{{}}{{}}}
\bibcite{Deak:2010gk}{{55}{}{{}}{{}}}
\bibcite{hermes}{{56}{}{{}}{{}}}
\bibcite{AndreSchoening}{{57}{}{{}}{{}}}
\bibcite{Stump:2001gu}{{58}{}{{}}{{}}}
\bibcite{Botje:2001fx}{{59}{}{{}}{{}}}
\bibcite{Aaron:2009bp}{{60}{}{{}}{{}}}
\bibcite{Pascaud:1995qs}{{61}{}{{}}{{}}}
\bibcite{Giele:1998gw}{{62}{}{{}}{{}}}
\bibcite{mcmethod2}{{63}{}{{}}{{}}}
\bibcite{Chebyshev}{{64}{}{{}}{{}}}
\bibcite{Ball:2011gg}{{65}{}{{}}{{}}}
\bibcite{Ball:2010gb}{{66}{}{{}}{{}}}
\bibcite{Watt:2012tq}{{67}{}{{}}{{}}}
\@input{chapters/englishabstract.aux}
\providecommand\NAT@force@numbers{}\NAT@force@numbers
