\relax 
\providecommand\hyper@newdestlabel[2]{}
\providecommand\zref@newlabel[2]{}
\@setckpt{chapters/englishabstract}{
\setcounter{page}{91}
\setcounter{equation}{3}
\setcounter{enumi}{2}
\setcounter{enumii}{0}
\setcounter{enumiii}{0}
\setcounter{enumiv}{0}
\setcounter{footnote}{3}
\setcounter{mpfootnote}{0}
\setcounter{linenumber}{1}
\setcounter{LN@truepage}{103}
\setcounter{part}{0}
\setcounter{chapter}{0}
\setcounter{section}{0}
\setcounter{subsection}{0}
\setcounter{subsubsection}{0}
\setcounter{paragraph}{0}
\setcounter{subparagraph}{0}
\setcounter{figure}{4}
\setcounter{table}{2}
\setcounter{FancyVerbLine}{0}
\setcounter{parentequation}{57}
\setcounter{NAT@ctr}{67}
\setcounter{Item}{5}
\setcounter{Hfootnote}{54}
\setcounter{Hy@AnnotLevel}{0}
\setcounter{bookmark@seq@number}{40}
\setcounter{footdir@label}{135}
\setcounter{section@level}{0}
}
